%YAML 1.1
%TAG !u! tag:unity3d.com,2011:
--- !u!1001 &6805094548848791350
PrefabInstance:
  m_ObjectHideFlags: 0
  serializedVersion: 2
  m_Modification:
    m_TransformParent: {fileID: 0}
    m_Modifications:
    - target: {fileID: -8679921383154817045, guid: 25a6191fc5adc7c40ba764f6a0acc2b2, type: 3}
      propertyPath: m_RootOrder
      value: 0
      objectReference: {fileID: 0}
    - target: {fileID: -8679921383154817045, guid: 25a6191fc5adc7c40ba764f6a0acc2b2, type: 3}
      propertyPath: m_LocalScale.x
      value: 0.005093588
      objectReference: {fileID: 0}
    - target: {fileID: -8679921383154817045, guid: 25a6191fc5adc7c40ba764f6a0acc2b2, type: 3}
      propertyPath: m_LocalScale.y
      value: 0.005093588
      objectReference: {fileID: 0}
    - target: {fileID: -8679921383154817045, guid: 25a6191fc5adc7c40ba764f6a0acc2b2, type: 3}
      propertyPath: m_LocalScale.z
      value: 0.005093588
      objectReference: {fileID: 0}
    - target: {fileID: -8679921383154817045, guid: 25a6191fc5adc7c40ba764f6a0acc2b2, type: 3}
      propertyPath: m_LocalPosition.x
      value: -4.3047
      objectReference: {fileID: 0}
    - target: {fileID: -8679921383154817045, guid: 25a6191fc5adc7c40ba764f6a0acc2b2, type: 3}
      propertyPath: m_LocalPosition.y
      value: 3.227
      objectReference: {fileID: 0}
    - target: {fileID: -8679921383154817045, guid: 25a6191fc5adc7c40ba764f6a0acc2b2, type: 3}
      propertyPath: m_LocalPosition.z
      value: 9.1465
      objectReference: {fileID: 0}
    - target: {fileID: -8679921383154817045, guid: 25a6191fc5adc7c40ba764f6a0acc2b2, type: 3}
      propertyPath: m_LocalRotation.w
      value: 0.73157376
      objectReference: {fileID: 0}
    - target: {fileID: -8679921383154817045, guid: 25a6191fc5adc7c40ba764f6a0acc2b2, type: 3}
      propertyPath: m_LocalRotation.x
      value: -0
      objectReference: {fileID: 0}
    - target: {fileID: -8679921383154817045, guid: 25a6191fc5adc7c40ba764f6a0acc2b2, type: 3}
      propertyPath: m_LocalRotation.y
      value: -0.6817624
      objectReference: {fileID: 0}
    - target: {fileID: -8679921383154817045, guid: 25a6191fc5adc7c40ba764f6a0acc2b2, type: 3}
      propertyPath: m_LocalRotation.z
      value: -0
      objectReference: {fileID: 0}
    - target: {fileID: -8679921383154817045, guid: 25a6191fc5adc7c40ba764f6a0acc2b2, type: 3}
      propertyPath: m_LocalEulerAnglesHint.x
      value: 0
      objectReference: {fileID: 0}
    - target: {fileID: -8679921383154817045, guid: 25a6191fc5adc7c40ba764f6a0acc2b2, type: 3}
      propertyPath: m_LocalEulerAnglesHint.y
      value: -85.963
      objectReference: {fileID: 0}
    - target: {fileID: -8679921383154817045, guid: 25a6191fc5adc7c40ba764f6a0acc2b2, type: 3}
      propertyPath: m_LocalEulerAnglesHint.z
      value: 0
      objectReference: {fileID: 0}
    - target: {fileID: 919132149155446097, guid: 25a6191fc5adc7c40ba764f6a0acc2b2, type: 3}
      propertyPath: m_Name
      value: demo_dress Variant
      objectReference: {fileID: 0}
    m_RemovedComponents: []
  m_SourcePrefab: {fileID: 100100000, guid: 25a6191fc5adc7c40ba764f6a0acc2b2, type: 3}
