%YAML 1.1
%TAG !u! tag:unity3d.com,2011:
--- !u!114 &11400000
MonoBehaviour:
  m_ObjectHideFlags: 0
  m_CorrespondingSourceObject: {fileID: 0}
  m_PrefabInstance: {fileID: 0}
  m_PrefabAsset: {fileID: 0}
  m_GameObject: {fileID: 0}
  m_Enabled: 1
  m_EditorHideFlags: 0
  m_Script: {fileID: 11500000, guid: 468a46d0ae32c3544b7d98094e6448a9, type: 3}
  m_Name: AddressableAssetSettings
  m_EditorClassIdentifier: 
  m_DefaultGroup: 161872c48a49ccf479083eba01cdc118
  m_OptimizeCatalogSize: 0
  m_BuildRemoteCatalog: 0
  m_BundleLocalCatalog: 0
  m_CatalogRequestsTimeout: 0
  m_DisableCatalogUpdateOnStart: 0
  m_IgnoreUnsupportedFilesInBuild: 0
  m_UniqueBundleIds: 0
  m_NonRecursiveBuilding: 0
  m_CCDEnabled: 0
  m_maxConcurrentWebRequests: 500
  m_ContiguousBundles: 0
  m_StripUnityVersionFromBundleBuild: 0
  m_DisableVisibleSubAssetRepresentations: 0
  m_ShaderBundleNaming: 0
  m_ShaderBundleCustomNaming: 
  m_MonoScriptBundleNaming: 0
  m_MonoScriptBundleCustomNaming: 
  m_RemoteCatalogBuildPath:
    m_Id: 
  m_RemoteCatalogLoadPath:
    m_Id: 
  m_ContentStateBuildPath: 
  m_BuildAddressablesWithPlayerBuild: 0
  m_overridePlayerVersion: 
  m_GroupAssets:
  - {fileID: 11400000, guid: 6c92feefe7058a14e98d29dbba14acfd, type: 2}
  - {fileID: 11400000, guid: a46ef4e4ca84f174a95e74e6f178f3c5, type: 2}
  - {fileID: 11400000, guid: 1dec75786c77a4843b903478891584cc, type: 2}
  - {fileID: 11400000, guid: 56d67eee81dd58043909c073a37765f7, type: 2}
  - {fileID: 11400000, guid: cdae7361b331eff49a6670a5145ce140, type: 2}
  - {fileID: 11400000, guid: f6e2e288017d10641b024d2c04874134, type: 2}
  m_BuildSettings:
    m_CompileScriptsInVirtualMode: 0
    m_CleanupStreamingAssetsAfterBuilds: 1
    m_LogResourceManagerExceptions: 1
    m_BundleBuildPath: Temp/com.unity.addressables/AssetBundles
  m_ProfileSettings:
    m_Profiles:
    - m_InheritedParent: 
      m_Id: 4ed968bf26eab7344be7479fce1f04b4
      m_ProfileName: Default
      m_Values:
      - m_Id: d89c6cae660880f4199bac87c7c2077e
        m_Value: '[UnityEditor.EditorUserBuildSettings.activeBuildTarget]'
      - m_Id: 2a27644d1b60aa44f8b8306332b1cae2
        m_Value: '[UnityEngine.AddressableAssets.Addressables.BuildPath]/[BuildTarget]'
      - m_Id: 76c8074103edf554f939b03b609337c0
        m_Value: '{UnityEngine.AddressableAssets.Addressables.RuntimePath}/[BuildTarget]'
      - m_Id: aca5e15571179274485d0b92018d5ffc
        m_Value: ServerData/[BuildTarget]
      - m_Id: 27bacf90cf948e947b51d33f362c5825
        m_Value: http://localhost/[BuildTarget]
    m_ProfileEntryNames:
    - m_Id: d89c6cae660880f4199bac87c7c2077e
      m_Name: BuildTarget
      m_InlineUsage: 0
    - m_Id: 2a27644d1b60aa44f8b8306332b1cae2
      m_Name: Local.BuildPath
      m_InlineUsage: 0
    - m_Id: 76c8074103edf554f939b03b609337c0
      m_Name: Local.LoadPath
      m_InlineUsage: 0
    - m_Id: aca5e15571179274485d0b92018d5ffc
      m_Name: Remote.BuildPath
      m_InlineUsage: 0
    - m_Id: 27bacf90cf948e947b51d33f362c5825
      m_Name: Remote.LoadPath
      m_InlineUsage: 0
    m_ProfileVersion: 1
  m_LabelTable:
    m_LabelNames:
    - default
    - Locale
    - Locale-nl
    - Locale-en
  m_SchemaTemplates: []
  m_GroupTemplateObjects:
  - {fileID: 11400000, guid: e8d787f2341e2c44195fb157966727dc, type: 2}
  m_InitializationObjects: []
  m_CertificateHandlerType:
    m_AssemblyName: 
    m_ClassName: 
  m_ActivePlayerDataBuilderIndex: 3
  m_DataBuilders:
  - {fileID: 11400000, guid: 223751d8c5e3ff74bbf1a4031f5a91b9, type: 2}
  - {fileID: 11400000, guid: c5b6c90a412551a4c9508d1e33c7045f, type: 2}
  - {fileID: 11400000, guid: 7226b3590426e1c428024315b56d0d8e, type: 2}
  - {fileID: 11400000, guid: cd1bde522f9a2db4fbf2022a76d8b3b2, type: 2}
  m_ActiveProfileId: 4ed968bf26eab7344be7479fce1f04b4
  m_HostingServicesManager:
    m_HostingServiceInfos: []
    m_Settings: {fileID: 11400000}
    m_NextInstanceId: 0
    m_RegisteredServiceTypeRefs: []
