%YAML 1.1
%TAG !u! tag:unity3d.com,2011:
--- !u!114 &11400000
MonoBehaviour:
  m_ObjectHideFlags: 0
  m_CorrespondingSourceObject: {fileID: 0}
  m_PrefabInstance: {fileID: 0}
  m_PrefabAsset: {fileID: 0}
  m_GameObject: {fileID: 0}
  m_Enabled: 1
  m_EditorHideFlags: 0
  m_Script: {fileID: 11500000, guid: bbb281ee3bf0b054c82ac2347e9e782c, type: 3}
  m_Name: Default Local Group
  m_EditorClassIdentifier: 
  m_GroupName: Default Local Group
  m_Data:
    m_SerializedData: []
  m_GUID: 161872c48a49ccf479083eba01cdc118
  m_SerializeEntries: []
  m_ReadOnly: 0
  m_Settings: {fileID: 11400000, guid: 9e5f6c909c10f5847bd0ad8bb0f30ea6, type: 2}
  m_SchemaSet:
    m_Schemas:
    - {fileID: 11400000, guid: 6b38c1ba30c751645a18d751abfbc325, type: 2}
    - {fileID: 11400000, guid: 1caa189eba2b8744c9b7ad639fb61625, type: 2}
