%YAML 1.1
%TAG !u! tag:unity3d.com,2011:
--- !u!114 &11400000
MonoBehaviour:
  m_ObjectHideFlags: 0
  m_CorrespondingSourceObject: {fileID: 0}
  m_PrefabInstance: {fileID: 0}
  m_PrefabAsset: {fileID: 0}
  m_GameObject: {fileID: 0}
  m_Enabled: 1
  m_EditorHideFlags: 0
  m_Script: {fileID: 11500000, guid: bbb281ee3bf0b054c82ac2347e9e782c, type: 3}
  m_Name: Localization-String-Tables-English (en)
  m_EditorClassIdentifier: 
  m_GroupName: Localization-String-Tables-English (en)
  m_Data:
    m_SerializedData: []
  m_GUID: d40f62fa873788244932bf0a81323560
  m_SerializeEntries:
  - m_GUID: 277517b1585642f48a36b025d181cd12
    m_Address: UIText_en
    m_ReadOnly: 1
    m_SerializedLabels:
    - Locale-en
  m_ReadOnly: 1
  m_Settings: {fileID: 11400000, guid: 9e5f6c909c10f5847bd0ad8bb0f30ea6, type: 2}
  m_SchemaSet:
    m_Schemas:
    - {fileID: 11400000, guid: 2e32010fe0315964b98b87505015439b, type: 2}
    - {fileID: 11400000, guid: 826d957e548a4234e9e63d4472020d23, type: 2}
