%YAML 1.1
%TAG !u! tag:unity3d.com,2011:
--- !u!114 &11400000
MonoBehaviour:
  m_ObjectHideFlags: 0
  m_CorrespondingSourceObject: {fileID: 0}
  m_PrefabInstance: {fileID: 0}
  m_PrefabAsset: {fileID: 0}
  m_GameObject: {fileID: 0}
  m_Enabled: 1
  m_EditorHideFlags: 0
  m_Script: {fileID: 11500000, guid: e5d17a21594effb4e9591490b009e7aa, type: 3}
  m_Name: Localization-Locales_BundledAssetGroupSchema
  m_EditorClassIdentifier: 
  m_Group: {fileID: 11400000, guid: 1dec75786c77a4843b903478891584cc, type: 2}
  m_InternalBundleIdMode: 1
  m_Compression: 1
  m_IncludeAddressInCatalog: 1
  m_IncludeGUIDInCatalog: 1
  m_IncludeLabelsInCatalog: 1
  m_InternalIdNamingMode: 0
  m_CacheClearBehavior: 0
  m_IncludeInBuild: 1
  m_BundledAssetProviderType:
    m_AssemblyName: Unity.ResourceManager, Version=0.0.0.0, Culture=neutral, PublicKeyToken=null
    m_ClassName: UnityEngine.ResourceManagement.ResourceProviders.BundledAssetProvider
  m_ForceUniqueProvider: 0
  m_UseAssetBundleCache: 1
  m_UseAssetBundleCrc: 1
  m_UseAssetBundleCrcForCachedBundles: 1
  m_UseUWRForLocalBundles: 0
  m_Timeout: 0
  m_ChunkedTransfer: 0
  m_RedirectLimit: -1
  m_RetryCount: 0
  m_BuildPath:
    m_Id: 2a27644d1b60aa44f8b8306332b1cae2
  m_LoadPath:
    m_Id: 76c8074103edf554f939b03b609337c0
  m_BundleMode: 0
  m_AssetBundleProviderType:
    m_AssemblyName: Unity.ResourceManager, Version=0.0.0.0, Culture=neutral, PublicKeyToken=null
    m_ClassName: UnityEngine.ResourceManagement.ResourceProviders.AssetBundleProvider
  m_BundleNaming: 1
  m_AssetLoadMode: 0
